board_id,fe_id,lsb_thr_e,lsb_thr_t1,lsb_thr_t2
1,0,59,59,57
1,1,59,59,57
1,2,59,59,57
1,3,59,59,57
1,4,59,59,57
1,5,59,59,57
1,6,59,59,57
1,7,59,59,57
10,0,59,59,57
10,1,59,59,57
10,2,59,59,57
10,3,59,59,57
10,4,59,59,57
10,5,59,59,57
10,6,59,59,57
10,7,59,59,57
11,0,59,59,57
11,1,59,59,57
11,2,59,59,57
11,3,59,59,57
11,4,59,59,57
11,5,59,59,57
11,6,59,59,57
11,7,59,59,57
13,0,59,59,57
13,1,59,59,57
13,2,59,59,57
13,3,59,59,57
13,4,59,59,57
13,5,59,59,57
13,6,59,59,57
13,7,59,59,57
14,0,59,59,57
14,1,59,59,57
14,2,59,59,57
14,3,59,59,57
14,4,59,59,57
14,5,59,59,57
14,6,59,59,57
14,7,59,59,57
15,0,59,59,57
15,1,59,59,57
15,2,59,59,57
15,3,59,59,57
15,4,59,59,57
15,5,59,59,57
15,6,59,59,57
15,7,59,59,57
16,0,59,59,57
16,1,59,59,57
16,2,59,59,57
16,3,59,59,57
16,4,59,59,57
16,5,59,59,57
16,6,59,59,57
16,7,59,59,57
17,0,59,59,57
17,1,59,59,57
17,2,59,59,57
17,3,59,59,57
17,4,59,59,57
17,5,59,59,57
17,6,59,59,57
17,7,59,59,57
18,0,59,59,57
18,1,59,59,57
18,2,59,59,57
18,3,59,59,57
18,4,59,59,57
18,5,59,59,57
18,6,59,59,57
18,7,59,59,57
19,0,59,59,57
19,1,59,59,57
19,2,59,59,57
19,3,59,59,57
19,4,59,59,57
19,5,59,59,57
19,6,59,59,57
19,7,59,59,57
2,0,59,59,57
2,1,59,59,57
2,2,59,59,57
2,3,59,59,57
2,4,59,59,57
2,5,59,59,57
2,6,59,59,57
2,7,59,59,57
20,0,59,59,57
20,1,59,59,57
20,2,59,59,57
20,3,59,59,57
20,4,59,59,57
20,5,59,59,57
20,6,59,59,57
20,7,59,59,57
21,0,59,59,57
21,1,59,59,57
21,2,59,59,57
21,3,59,59,57
21,4,59,59,57
21,5,59,59,57
21,6,59,59,57
21,7,59,59,57
22,0,59,59,57
22,1,59,59,57
22,2,59,59,57
22,3,59,59,57
22,4,59,59,57
22,5,59,59,57
22,6,59,59,57
22,7,59,59,57
23,0,59,59,57
23,1,59,59,57
23,2,59,59,57
23,3,59,59,57
23,4,59,59,57
23,5,59,59,57
23,6,59,59,57
23,7,59,59,57
25,0,59,59,57
25,1,59,59,57
25,2,59,59,57
25,3,59,59,57
25,4,59,59,57
25,5,59,59,57
25,6,59,59,57
25,7,59,59,57
27,0,59,59,57
27,1,59,59,57
27,2,59,59,57
27,3,59,59,57
27,4,59,59,57
27,5,59,59,57
27,6,59,59,57
27,7,59,59,57
28,0,59,59,57
28,1,59,59,57
28,2,59,59,57
28,3,59,59,57
28,4,59,59,57
28,5,59,59,57
28,6,59,59,57
28,7,59,59,57
29,0,59,59,57
29,1,59,59,57
29,2,59,59,57
29,3,59,59,57
29,4,59,59,57
29,5,59,59,57
29,6,59,59,57
29,7,59,59,57
3,0,59,59,57
3,1,59,59,57
3,2,59,59,57
3,3,59,59,57
3,4,59,59,57
3,5,59,59,57
3,6,59,59,57
3,7,59,59,57
30,0,59,59,57
30,1,59,59,57
30,2,59,59,57
30,3,59,59,57
30,4,59,59,57
30,5,59,59,57
30,6,59,59,57
30,7,59,59,57
36,0,59,59,57
36,1,59,59,57
36,2,59,59,57
36,3,59,59,57
36,4,59,59,57
36,5,59,59,57
36,6,59,59,57
36,7,59,59,57
4,0,59,59,57
4,1,59,59,57
4,2,59,59,57
4,3,59,59,57
4,4,59,59,57
4,5,59,59,57
4,6,59,59,57
4,7,59,59,57
46,0,59,59,57
46,1,59,59,57
46,2,59,59,57
46,3,59,59,57
46,4,59,59,57
46,5,59,59,57
46,6,59,59,57
46,7,59,59,57
49,0,59,59,57
49,1,59,59,57
49,2,59,59,57
49,3,59,59,57
49,4,59,59,57
49,5,59,59,57
49,6,59,59,57
49,7,59,59,57
5,0,59,59,57
5,1,59,59,57
5,2,59,59,57
5,3,59,59,57
5,4,59,59,57
5,5,59,59,57
5,6,59,59,57
5,7,59,59,57
50,0,59,59,57
50,1,59,59,57
50,2,59,59,57
50,3,59,59,57
50,4,59,59,57
50,5,59,59,57
50,6,59,59,57
50,7,59,59,57
6,0,59,59,57
6,1,59,59,57
6,2,59,59,57
6,3,59,59,57
6,4,59,59,57
6,5,59,59,57
6,6,59,59,57
6,7,59,59,57
8,0,59,59,57
8,1,59,59,57
8,2,59,59,57
8,3,59,59,57
8,4,59,59,57
8,5,59,59,57
8,6,59,59,57
8,7,59,59,57
9,0,59,59,57
9,1,59,59,57
9,2,59,59,57
9,3,59,59,57
9,4,59,59,57
9,5,59,59,57
9,6,59,59,57
9,7,59,59,57
